<?xml version="1.0" encoding="utf-8"?>
<!-- Generator: Adobe Illustrator 23.0.1, SVG Export Plug-In . SVG Version: 6.00 Build 0)  -->
<svg version="1.1" xmlns="http://www.w3.org/2000/svg" xmlns:xlink="http://www.w3.org/1999/xlink" x="0px" y="0px"
	 viewBox="0 0 53.5 54.8" style="enable-background:new 0 0 53.5 54.8;" xml:space="preserve">
<style type="text/css">
	.st0{fill:#DBDBDB;}
	.st1{display:none;}
	.st2{display:inline;fill:#2F9FD6;}
	.st3{display:inline;}
	.st4{fill:#2F9FD6;}
</style>
<g id="Layer_3">
	<g>
		<path class="st0" d="M26.8,3.2c13.2,0,24,10.8,24,24s-10.8,24-24,24s-24-10.8-24-24S13.5,3.2,26.8,3.2 M26.8,2.2
			c-13.8,0-25,11.2-25,25s11.2,25,25,25s25-11.2,25-25S40.6,2.2,26.8,2.2L26.8,2.2z"/>
	</g>
</g>
<g id="Capa_1" class="st1">
	<circle class="st2" cx="13.2" cy="27.4" r="5.7"/>
	<circle class="st2" cx="35.3" cy="39.7" r="5.7"/>
	<circle class="st2" cx="35.3" cy="15.1" r="5.7"/>
	<g class="st3">
		<path class="st4" d="M18.3,25.4c0.1,0,0.2,0,0.3-0.1l11.9-7.2c0.3-0.2,0.4-0.6,0.2-0.9c-0.2-0.3-0.6-0.4-0.9-0.2l-11.9,7.2
			c-0.3,0.2-0.4,0.6-0.2,0.9C17.8,25.3,18,25.4,18.3,25.4z"/>
		<path class="st4" d="M30.5,36.7l-11.9-7.2c-0.3-0.2-0.7-0.1-0.9,0.2c-0.2,0.3-0.1,0.7,0.2,0.9l11.9,7.2c0.1,0.1,0.2,0.1,0.3,0.1
			c0.2,0,0.4-0.1,0.5-0.3C30.9,37.3,30.8,36.9,30.5,36.7z"/>
	</g>
</g>
<g id="Layer_2" class="st1">
	<g class="st3">
		<path class="st4" d="M29.3,18.2c1.6,1,2.6,2.6,2.8,4.5c0.6,0.3,1.3,0.5,2.1,0.5c2.7,0,4.9-2.2,4.9-4.9c0-2.7-2.2-4.9-4.9-4.9
			C31.5,13.3,29.3,15.5,29.3,18.2z M26,28.3c2.7,0,4.9-2.2,4.9-4.9s-2.2-4.9-4.9-4.9s-4.9,2.2-4.9,4.9S23.3,28.3,26,28.3z
			 M28.1,28.6h-4.2c-3.5,0-6.3,2.8-6.3,6.3V40l0,0.1l0.4,0.1c3.3,1,6.2,1.4,8.6,1.4c4.6,0,7.3-1.3,7.5-1.4l0.3-0.2h0v-5.1
			C34.4,31.4,31.6,28.6,28.1,28.6z M36.3,23.5h-4.2c0,1.7-0.8,3.2-1.9,4.2c3.1,0.9,5.4,3.8,5.4,7.2v1.6c4.1-0.2,6.5-1.3,6.6-1.4
			l0.3-0.2h0v-5.1C42.6,26.3,39.8,23.5,36.3,23.5z M17.4,23.2c1,0,1.9-0.3,2.6-0.8c0.2-1.6,1.1-3,2.3-3.9c0-0.1,0-0.2,0-0.3
			c0-2.7-2.2-4.9-4.9-4.9c-2.7,0-4.9,2.2-4.9,4.9C12.4,21,14.7,23.2,17.4,23.2z M21.8,27.7c-1.1-1.1-1.8-2.6-1.9-4.2
			c-0.2,0-0.3,0-0.5,0h-4.2c-3.5,0-6.3,2.8-6.3,6.3v5.1L9,35l0.4,0.1c2.7,0.8,5,1.2,7.1,1.3v-1.5C16.4,31.5,18.7,28.7,21.8,27.7z"/>
	</g>
</g>
<g id="Layer_4">
	<g>
		<g>
			<path class="st4" d="M47,26.6c-0.1-0.1-2.1-2.6-5.5-5.1c-4.6-3.4-9.6-5.1-14.4-5.1c-4.8,0-9.8,1.8-14.4,5.1
				c-3.4,2.5-5.4,5-5.5,5.1l-0.7,0.9l0.7,0.9c0.1,0.1,2.1,2.6,5.5,5.1c4.6,3.4,9.6,5.1,14.4,5.1c4.8,0,9.8-1.8,14.4-5.1
				c3.4-2.5,5.4-5,5.5-5.1l0.7-0.9L47,26.6z M27.1,35.3c-4.3,0-7.8-3.5-7.8-7.8c0-0.7,0.1-1.3,0.2-2l-1.8-0.3
				c-0.2,0.7-0.3,1.5-0.3,2.3c0,2.8,1.2,5.3,3.1,7.1c-2.4-0.9-4.5-2.2-6.1-3.3c-1.9-1.4-3.4-2.9-4.2-3.7c0.8-0.9,2.3-2.3,4.2-3.7
				c1.6-1.1,3.6-2.4,6.1-3.3l1.2,1.4c1.4-1.3,3.3-2.1,5.3-2.1c4.3,0,7.8,3.5,7.8,7.8S31.4,35.3,27.1,35.3z M39.7,31.2
				c-1.6,1.1-3.6,2.4-6.1,3.3c1.9-1.8,3.1-4.3,3.1-7.1s-1.2-5.3-3.1-7.1c2.4,0.9,4.5,2.2,6.1,3.3c1.9,1.4,3.4,2.9,4.2,3.7
				C43.1,28.4,41.7,29.8,39.7,31.2z"/>
			<path class="st4" d="M22.1,26c-0.1,0.5-0.2,1-0.2,1.5c0,2.9,2.3,5.2,5.2,5.2c2.9,0,5.2-2.3,5.2-5.2s-2.3-5.2-5.2-5.2
				c-1.4,0-2.7,0.6-3.6,1.5l2.6,2.9L22.1,26z"/>
		</g>
	</g>
</g>
</svg>
